[
 {
 "name":"grilledcheeseontoast",
 "ingredients":[
 {
 "item":"bread",
 "amount":"2",
 "unit":"slices"
 },
 {
 "item":"cheese",
 "amount":"2",
 "unit":"slices"
 }
 ]
 },
 {
 "name":"saladsandwich",
 "ingredients":[
 {
 "item":"bread",
 "amount":"2",
 "unit":"slices"
 },
 {
 "item":"mixedsalad",
 "amount":"200",
 "unit":"grams"
 }
 ]
 }
]